%YAML 1.1
%TAG !u! tag:unity3d.com,2011:
--- !u!78 &1
TagManager:
  serializedVersion: 2
  tags:
  - Waypoint_A
  - Waypoint_B
  - Waypoint
  - BodyTag
  - 'Awareness_Front '
  - Awareness_Back
  - Enemy
  - PortalToNextLevel
  layers:
  - Default
  - TransparentFX
  - Ignore Raycast
  - 
  - Water
  - UI
  - Enemy
  - Player
  - 
  - 
  - 
  - 
  - 
  - 
  - 
  - 
  - 
  - 
  - 
  - 
  - 
  - 
  - 
  - 
  - 
  - 
  - 
  - 
  - 
  - 
  - 
  - 
  m_SortingLayers:
  - name: Default
    uniqueID: 0
    locked: 0
  - name: Background
    uniqueID: 545827525
    locked: 0
  - name: Player
    uniqueID: 4165908221
    locked: 0
  - name: UI
    uniqueID: 241974969
    locked: 0
